<svg width="56" height="56" viewBox="0 0 56 56" fill="none" xmlns="http://www.w3.org/2000/svg">
<rect opacity="0.1" width="56" height="56" rx="20" fill="#F7543E"/>
<path d="M24.7308 32.081C24.947 32.1891 25.1633 32.4053 25.2714 32.6215C26.4606 34.1351 25.5957 35.7567 23.9741 36.7297C21.8119 37.9188 18.3525 37.9188 16.1903 36.7297C14.5687 35.7567 13.7038 34.1351 14.893 32.6215C15.1092 32.4053 15.2173 32.1891 15.4335 32.081C14.2443 31.108 14.0281 29.7026 14.893 28.5134C15.1092 28.2972 15.2173 28.081 15.4335 27.9729C14.2443 26.9999 14.0281 25.5945 14.893 24.2972C15.1092 24.1891 15.2173 23.9729 15.4335 23.8648C14.7849 23.2161 14.3525 22.5675 14.3525 21.8107C14.3525 20.7297 15.1092 19.8648 16.1903 19.2161C18.3525 17.9188 21.8119 17.9188 23.9741 19.2161C25.1633 19.8648 25.8119 20.7297 25.8119 21.8107C25.8119 22.5675 25.4876 23.2161 24.7308 23.8648C24.947 23.9729 25.1633 24.1891 25.2714 24.2972C26.2443 25.5945 25.92 26.9999 24.7308 27.9729C24.947 28.081 25.1633 28.2972 25.2714 28.5134C26.2443 29.7026 25.92 31.108 24.7308 32.081ZM41.2714 35.2161H39.1092V37.2702H37.5957V35.2161H35.4335V33.7026H37.5957V31.5405H39.1092V33.7026H41.2714V35.2161ZM38.5687 29.054C41.3795 29.1621 43.6497 31.5405 43.6497 34.4594C43.6497 37.3783 41.2714 39.7567 38.3525 39.7567C36.5146 39.7567 35.0011 38.8918 34.0281 37.5945C32.2984 37.7026 30.4606 37.4864 29.0552 36.7297C27.5416 35.7567 26.5687 34.1351 27.866 32.5134C27.9741 32.4053 28.1903 32.1891 28.2984 31.9729C27.2173 30.9999 26.893 29.5945 27.866 28.4053C27.9741 28.1891 28.1903 28.081 28.2984 27.8648C26.5687 26.3513 27.1092 24.2972 29.0552 23.2161C31.2173 22.0269 34.6768 22.0269 36.8389 23.2161C38.7849 24.2972 39.4335 26.3513 37.5957 27.8648C37.8119 28.081 38.0281 28.1891 38.1362 28.4053C38.3525 28.6215 38.4606 28.8378 38.5687 29.054ZM33.2714 36.1891C33.0552 35.6486 32.947 35.108 32.947 34.4594C32.947 34.1351 33.0552 33.7026 33.0552 33.4864C31.866 33.4864 30.6768 33.2702 29.5957 32.7297C29.2714 32.9459 29.0552 33.1621 28.8389 33.3783C28.1903 34.2432 28.947 34.9999 29.7038 35.5405C30.6768 36.081 31.9741 36.2972 33.2714 36.1891ZM33.4876 32.081C34.2443 30.6756 35.5416 29.5945 37.0552 29.2702C36.947 29.054 36.6227 28.8378 36.4065 28.6215C34.3525 29.4864 31.6498 29.4864 29.5957 28.6215C29.2714 28.8378 29.0552 29.054 28.8389 29.2702C28.1903 30.1351 28.947 30.8918 29.7038 31.3242C30.7849 31.8648 32.1903 32.1891 33.4876 32.081ZM38.3525 30.4594C36.0822 30.4594 34.3525 32.1891 34.3525 34.4594C34.3525 36.6215 36.0822 38.4594 38.3525 38.4594C40.5146 38.4594 42.3525 36.6215 42.3525 34.4594C42.3525 32.1891 40.5146 30.4594 38.3525 30.4594ZM36.1903 24.4053C34.4606 23.4324 31.5416 23.4324 29.7038 24.4053C28.1903 25.2702 28.1903 26.3513 29.7038 27.2161C31.5416 28.1891 34.4606 28.1891 36.1903 27.2161C37.7038 26.3513 37.7038 25.2702 36.1903 24.4053ZM16.6227 24.6215C16.4065 24.7297 16.1903 24.9459 15.9741 25.1621C15.3254 26.0269 16.0822 26.8918 16.8389 27.3242C18.6768 28.2972 21.5957 28.2972 23.3254 27.3242C24.1903 26.8918 24.8389 26.0269 24.1903 25.1621C24.0822 24.9459 23.7579 24.7297 23.5416 24.6215C21.4876 25.4864 18.6768 25.4864 16.6227 24.6215ZM23.3254 20.4053C21.5957 19.3242 18.5687 19.3242 16.8389 20.4053C16.1903 20.7297 15.7579 21.2702 15.7579 21.8107C15.7579 22.2432 16.1903 22.7837 16.8389 23.2161C18.6768 24.1891 21.5957 24.1891 23.3254 23.2161C24.0822 22.7837 24.5146 22.2432 24.5146 21.8107C24.5146 21.2702 24.0822 20.7297 23.3254 20.4053ZM16.6227 28.7297C16.4065 28.8378 16.1903 29.054 15.9741 29.2702C15.3254 30.1351 16.0822 30.9999 16.8389 31.4324C18.6768 32.4053 21.5957 32.4053 23.3254 31.4324C24.1903 30.9999 24.8389 30.1351 24.1903 29.2702C24.0822 29.054 23.866 28.8378 23.5416 28.7297C21.4876 29.5945 18.6768 29.5945 16.6227 28.7297ZM16.6227 32.8378C16.4065 32.9459 16.1903 33.1621 15.9741 33.3783C15.3254 34.2432 16.0822 35.108 16.8389 35.5405C18.6768 36.5134 21.5957 36.5134 23.3254 35.5405C24.1903 35.108 24.8389 34.2432 24.1903 33.3783C24.0822 33.1621 23.7579 32.9459 23.5416 32.8378C21.4876 33.7026 18.6768 33.7026 16.6227 32.8378Z" fill="#FD7E6F"/>
</svg>
