<svg width="26" height="22" viewBox="0 0 26 22" fill="none" xmlns="http://www.w3.org/2000/svg">
<path d="M9.62967 21.6461H3.01953V16.3416C3.01953 16.3212 5.54934 20.4628 9.62967 21.6461Z" fill="#3670FB"/>
<path d="M18.2798 0H24.8695V5.30443C24.8695 5.30443 22.3397 1.16289 18.2798 0Z" fill="#3670FB"/>
<path d="M14.1997 18.7696C18.549 18.7696 22.0748 15.2438 22.0748 10.8946C22.0748 6.54531 18.549 3.01953 14.1997 3.01953C9.85048 3.01953 6.32471 6.54531 6.32471 10.8946C6.32471 15.2438 9.85048 18.7696 14.1997 18.7696Z" stroke="#3670FB" stroke-width="5" stroke-miterlimit="10"/>
<path d="M25.1961 9.854H0V12.6082H25.1961V9.854Z" fill="#F7FAFF"/>
<path d="M4.7334 1.04053V9.58882H13.4245" stroke="#3670FB" stroke-width="4" stroke-miterlimit="10"/>
<path d="M23.0538 21.6461V13.0774H14.3423" stroke="#3670FB" stroke-width="4" stroke-miterlimit="10"/>
</svg>
