<svg width="56" height="56" viewBox="0 0 56 56" fill="none" xmlns="http://www.w3.org/2000/svg">
<rect opacity="0.1" width="56" height="56" rx="20" fill="#638FFE"/>
<path d="M26.2757 36.3324C26.5815 36.3324 26.8421 36.078 26.8421 35.7543V34.9449C27.4538 34.8293 27.9522 34.5864 28.3714 34.2049C28.9038 33.7193 29.1983 33.0718 29.1983 32.3896C29.2097 31.6958 28.9265 31.0368 28.4054 30.5511C27.9069 30.0539 27.1819 29.7996 26.4909 29.5568C25.3581 29.1521 24.6558 28.8514 24.5538 28.0652C24.4745 27.4986 24.8936 26.8974 25.4827 26.7239C26.1397 26.5274 27.012 26.6083 27.839 26.9436C28.1335 27.0593 28.4507 26.9205 28.5753 26.6199C28.6886 26.3193 28.5526 25.9955 28.2581 25.8683C27.7823 25.6718 27.3065 25.5561 26.8308 25.4983V24.7236C26.8308 24.4114 26.5815 24.1455 26.2643 24.1455C25.9585 24.1455 25.6979 24.3999 25.6979 24.7236V25.4983C25.5167 25.5214 25.3354 25.5561 25.1655 25.6139C24.044 25.9493 23.285 27.0939 23.4323 28.2155C23.6362 29.7533 25.0069 30.2505 26.1171 30.6436C26.7175 30.8633 27.2952 31.0599 27.6237 31.3836C27.9069 31.6611 28.0655 32.008 28.0655 32.378C28.0655 32.7364 27.8956 33.0833 27.6124 33.3493C27.2839 33.6499 26.8308 33.8233 26.253 33.8696C25.7999 33.8927 25.2788 33.8464 24.6444 33.7308C24.4858 33.6961 24.3386 33.673 24.1913 33.6268C23.8968 33.5343 23.5796 33.7077 23.489 34.0083C23.3983 34.3089 23.5683 34.6327 23.8628 34.7252C24.044 34.783 24.2366 34.8177 24.4405 34.8639C24.9163 34.9564 25.3354 35.0027 25.7206 35.0258V35.7658C25.7206 36.0664 25.9698 36.3324 26.2757 36.3324Z" fill="#38327C"/>
<path d="M32.9824 24.5621H34.4098C33.5148 23.1862 32.2914 22.053 30.8641 21.2784L30.7055 21.1974L32.2008 15.5896C32.2461 15.4162 32.2121 15.2312 32.0988 15.0809C31.9855 14.9305 31.8156 14.8496 31.6457 14.8496H20.9973C20.816 14.8496 20.6461 14.9421 20.5441 15.0809C20.4422 15.2196 20.3969 15.4162 20.4422 15.5896L21.9375 21.1859L21.7789 21.2668C18.5844 23.0012 16.6133 26.3659 16.6133 30.0427V38.8996C16.6133 39.2234 16.8738 39.4893 17.191 39.4893H29.0516C29.0402 39.4199 29.0402 39.3505 29.0402 39.2696V38.3099H17.7574V30.0427C17.7574 26.7359 19.6379 23.6487 22.5492 22.1918L22.5945 22.1687H26.3102C26.6273 22.1687 26.8879 21.9027 26.8879 21.579C26.8879 21.2552 26.6273 20.9893 26.3102 20.9893H23.0703L21.7449 16.0174H30.8754L29.5613 20.9893H29.3914C29.0516 20.9893 28.8023 21.2552 28.8023 21.579C28.8023 21.9027 29.0629 22.1687 29.3801 22.1687H30.0371L30.0824 22.1918C31.1926 22.7584 32.1895 23.5677 32.9824 24.5621Z" fill="#38327C"/>
<path d="M43.391 25.5908H31.4852C30.9301 25.5908 30.4883 26.0533 30.4883 26.6083V29.0827C30.4883 29.6493 30.9414 30.1002 31.4852 30.1002C31.791 30.1002 32.0516 29.8458 32.0516 29.5221C32.0516 29.2446 31.8703 29.0249 31.6098 28.9671V26.7355H43.2664V28.9671C43.0172 29.0249 42.8359 29.2561 42.8359 29.5221C42.8359 29.8343 43.0852 30.1002 43.4023 30.1002C43.9574 30.1002 44.3992 29.6377 44.3992 29.0827V26.6083C44.3879 26.0533 43.9461 25.5908 43.391 25.5908Z" fill="#38327C"/>
<path d="M43.391 30.9102H31.4852C30.9301 30.9102 30.4883 31.3727 30.4883 31.9277V34.402C30.4883 34.9686 30.9414 35.4195 31.4852 35.4195H43.391C43.9461 35.4195 44.3879 34.957 44.3879 34.402V31.9277C44.3879 31.3727 43.9461 30.9102 43.391 30.9102ZM43.2664 34.2748H31.6098V32.0548H43.2664V34.2748Z" fill="#38327C"/>
<path d="M43.391 36.2285C43.0852 36.2285 42.8246 36.4829 42.8246 36.8066C42.8246 37.0841 43.0059 37.3038 43.2551 37.3616V39.5932H31.6098V37.3616C31.859 37.3038 32.0516 37.0726 32.0516 36.8066C32.0516 36.4945 31.8023 36.2285 31.4852 36.2285C30.9301 36.2285 30.4883 36.691 30.4883 37.246V39.7204C30.4883 40.287 30.9414 40.7379 31.4852 40.7379H43.391C43.9461 40.7379 44.3879 40.2754 44.3879 39.7204V37.246C44.3879 36.6795 43.9461 36.2285 43.391 36.2285Z" fill="#38327C"/>
</svg>
