<svg width="279" height="1746" viewBox="0 0 279 1746" fill="none" xmlns="http://www.w3.org/2000/svg">
<rect x="-1" y="1" width="280" height="2416" transform="matrix(1 0 0 -1 -1 2416)" fill="#38327C" stroke="#F0F0F0" stroke-width="2"/>
<mask id="mask0" mask-type="alpha" maskUnits="userSpaceOnUse" x="0" y="0" width="277" height="2328">
<rect width="277" height="2328" fill="#251873"/>
</mask>
<g mask="url(#mask0)">
<g filter="url(#filter0_f)">
<ellipse cx="-26.5" cy="1613" rx="112.5" ry="449" fill="url(#paint0_linear)"/>
</g>
<g filter="url(#filter1_f)">
<ellipse cx="328" cy="592.5" rx="114" ry="380.5" fill="#33CDFF" fill-opacity="0.61"/>
</g>
</g>
<defs>
<filter id="filter0_f" x="-329" y="974" width="605" height="1278" filterUnits="userSpaceOnUse" color-interpolation-filters="sRGB">
<feFlood flood-opacity="0" result="BackgroundImageFix"/>
<feBlend mode="normal" in="SourceGraphic" in2="BackgroundImageFix" result="shape"/>
<feGaussianBlur stdDeviation="95" result="effect1_foregroundBlur"/>
</filter>
<filter id="filter1_f" x="24" y="22" width="608" height="1141" filterUnits="userSpaceOnUse" color-interpolation-filters="sRGB">
<feFlood flood-opacity="0" result="BackgroundImageFix"/>
<feBlend mode="normal" in="SourceGraphic" in2="BackgroundImageFix" result="shape"/>
<feGaussianBlur stdDeviation="95" result="effect1_foregroundBlur"/>
</filter>
<linearGradient id="paint0_linear" x1="-26.5" y1="1164" x2="-26.5" y2="2062" gradientUnits="userSpaceOnUse">
<stop stop-color="#F4A879"/>
<stop offset="1" stop-color="#F4A879" stop-opacity="0"/>
</linearGradient>
</defs>
</svg>
