<svg width="338" height="277" viewBox="0 0 338 277" fill="none" xmlns="http://www.w3.org/2000/svg">
<rect width="337.145" height="277" rx="6" fill="#38327C"/>
<mask id="mask0" mask-type="alpha" maskUnits="userSpaceOnUse" x="0" y="0" width="338" height="277">
<rect width="337.145" height="277" rx="6" fill="#4545E2"/>
</mask>
<g mask="url(#mask0)">
<g filter="url(#filter0_f)">
<ellipse rx="83.24" ry="152.397" transform="matrix(0.734049 0.679096 -0.322365 0.946615 320.15 250.293)" fill="#52C1FF"/>
</g>
<g filter="url(#filter1_f)">
<ellipse rx="70.1095" ry="163.744" transform="matrix(0.734049 0.679096 -0.322365 0.946615 98.1003 119.852)" fill="#763CEA" fill-opacity="0.72"/>
</g>
<g filter="url(#filter2_f)">
<ellipse rx="78.9214" ry="163.744" transform="matrix(0.734049 0.679096 -0.322365 0.946615 14.389 -14.6893)" fill="#F9589E" fill-opacity="0.77"/>
</g>
</g>
<defs>
<filter id="filter0_f" x="153.744" y="7.31055" width="332.811" height="485.966" filterUnits="userSpaceOnUse" color-interpolation-filters="sRGB">
<feFlood flood-opacity="0" result="BackgroundImageFix"/>
<feBlend mode="normal" in="SourceGraphic" in2="BackgroundImageFix" result="shape"/>
<feGaussianBlur stdDeviation="44" result="effect1_foregroundBlur"/>
</filter>
<filter id="filter1_f" x="-63.6211" y="-130.342" width="323.443" height="500.386" filterUnits="userSpaceOnUse" color-interpolation-filters="sRGB">
<feFlood flood-opacity="0" result="BackgroundImageFix"/>
<feBlend mode="normal" in="SourceGraphic" in2="BackgroundImageFix" result="shape"/>
<feGaussianBlur stdDeviation="44" result="effect1_foregroundBlur"/>
</filter>
<filter id="filter2_f" x="-151.984" y="-266.74" width="332.748" height="504.103" filterUnits="userSpaceOnUse" color-interpolation-filters="sRGB">
<feFlood flood-opacity="0" result="BackgroundImageFix"/>
<feBlend mode="normal" in="SourceGraphic" in2="BackgroundImageFix" result="shape"/>
<feGaussianBlur stdDeviation="44" result="effect1_foregroundBlur"/>
</filter>
</defs>
</svg>
