{
    "firebase" : {
        "apiKey": "AIzaSyC2_5kGQvmYa_LX3UoXk9aCFSZztTVRqGQ",
        "authDomain": "smartbitrage-9622b.firebaseapp.com",
        "databaseURL": "https://smartbitrage-9622b.firebaseio.com",
        "projectId": "smartbitrage-9622b",
        "storageBucket": "smartbitrage-9622b.appspot.com",
        "messagingSenderId": "1041911299151",
        "appId": "1:1041911299151:web:077d124496bd3c05b2be3a",
        "measurementId": "G-W8QYYW4HTL"
    }
}

