<svg width="22" height="25" viewBox="0 0 22 25" fill="none" xmlns="http://www.w3.org/2000/svg">
<path d="M17.0211 6.0415C18.5482 6.0415 20.1501 7.14065 20.7161 9.81159L21.6452 17.2968C22.3287 22.177 19.5841 24.1665 15.8998 24.1665H5.88281C2.18783 24.1665 -0.642137 22.7926 0.12676 17.2968L1.06652 9.81159C1.54708 7.06371 3.20235 6.0415 4.75082 6.0415H17.0211ZM7.3672 10.0644C6.77741 10.0644 6.29929 10.5565 6.29929 11.1635C6.29929 11.7706 6.77741 12.2627 7.3672 12.2627C7.957 12.2627 8.43512 11.7706 8.43512 11.1635L8.4268 11.0257C8.3609 10.4837 7.91163 10.0644 7.3672 10.0644ZM14.362 10.0644C13.7722 10.0644 13.2941 10.5565 13.2941 11.1635C13.2941 11.7706 13.7722 12.2627 14.362 12.2627C14.9518 12.2627 15.4299 11.7706 15.4299 11.1635C15.4299 10.5565 14.9518 10.0644 14.362 10.0644Z" fill="#38327C"/>
<path opacity="0.4" d="M16.8857 5.76897C16.8895 5.8627 16.8715 5.95603 16.8331 6.04167H15.0966C15.063 5.9546 15.0452 5.86226 15.044 5.76897C15.044 3.452 13.1592 1.57371 10.8343 1.57371C8.5093 1.57371 6.62454 3.452 6.62454 5.76897C6.64047 5.85918 6.64047 5.95146 6.62454 6.04167H4.84593C4.83 5.95146 4.83 5.85918 4.84593 5.76897C4.98107 2.54464 7.64335 0 10.8816 0C14.1199 0 16.7822 2.54464 16.9173 5.76897H16.8857Z" fill="#38327C"/>
</svg>
