<svg width="18" height="20" viewBox="0 0 18 20" fill="none" xmlns="http://www.w3.org/2000/svg">
<path d="M12.4216 0.833008C12.7428 0.833008 13.0084 1.0736 13.0504 1.38576L13.0562 1.47254L13.0562 2.19542C15.6624 2.37412 17.2582 4.05865 17.25 6.77831V14.5596C17.25 17.4423 15.4582 19.1663 12.5783 19.1663H5.42157C2.54514 19.1663 0.75 17.413 0.75 14.4951V6.77831C0.75 4.05963 2.35097 2.37463 4.95149 2.19549L4.95157 1.47254C4.95157 1.11934 5.23569 0.833008 5.58618 0.833008C5.90746 0.833008 6.17298 1.0736 6.215 1.38576L6.22079 1.47254L6.22067 2.17959H11.7867L11.787 1.47254C11.787 1.11934 12.0711 0.833008 12.4216 0.833008ZM15.9804 8.42576H2.01867L2.01923 14.4951C2.01923 16.6264 3.16007 17.8095 5.21322 17.8836L5.42157 17.8873H12.5783C14.77 17.8873 15.9807 16.7223 15.9807 14.5596L15.9804 8.42576ZM12.7665 13.791C13.117 13.791 13.4011 14.0774 13.4011 14.4306C13.4011 14.7543 13.1623 15.0219 12.8526 15.0643L12.7665 15.0701C12.4081 15.0701 12.124 14.7838 12.124 14.4306C12.124 14.1068 12.3628 13.8392 12.6725 13.7969L12.7665 13.791ZM9.01171 13.791C9.3622 13.791 9.64632 14.0774 9.64632 14.4306C9.64632 14.7543 9.40758 15.0219 9.09783 15.0643L9.01171 15.0701C8.65339 15.0701 8.36926 14.7838 8.36926 14.4306C8.36926 14.1068 8.608 13.8392 8.91776 13.7969L9.01171 13.791ZM5.24911 13.791C5.5996 13.791 5.88373 14.0774 5.88373 14.4306C5.88373 14.7543 5.64498 15.0219 5.33523 15.0643L5.24128 15.0701C4.89079 15.0701 4.60666 14.7838 4.60666 14.4306C4.60666 14.1068 4.84541 13.8392 5.15516 13.7969L5.24911 13.791ZM12.7665 10.4769C13.117 10.4769 13.4011 10.7633 13.4011 11.1165C13.4011 11.4402 13.1623 11.7078 12.8526 11.7502L12.7665 11.756C12.4081 11.756 12.124 11.4697 12.124 11.1165C12.124 10.7927 12.3628 10.5251 12.6725 10.4828L12.7665 10.4769ZM9.01171 10.4769C9.3622 10.4769 9.64632 10.7633 9.64632 11.1165C9.64632 11.4402 9.40758 11.7078 9.09783 11.7502L9.01171 11.756C8.65339 11.756 8.36926 11.4697 8.36926 11.1165C8.36926 10.7927 8.608 10.5251 8.91776 10.4828L9.01171 10.4769ZM5.24911 10.4769C5.5996 10.4769 5.88373 10.7633 5.88373 11.1165C5.88373 11.4402 5.64498 11.7078 5.33523 11.7502L5.24128 11.756C4.89079 11.756 4.60666 11.4697 4.60666 11.1165C4.60666 10.7927 4.84541 10.5251 5.15516 10.4828L5.24911 10.4769ZM11.7867 3.45834H6.22067L6.22079 4.27863C6.22079 4.63184 5.93667 4.91817 5.58618 4.91817C5.2649 4.91817 4.99938 4.67757 4.95736 4.36542L4.95157 4.27863L4.95067 3.47779C3.05899 3.63652 2.01923 4.78073 2.01923 6.77831L2.01867 7.14609H15.9804L15.9807 6.77635C15.9868 4.77719 14.9524 3.63536 13.0562 3.47759L13.0562 4.27863C13.0562 4.63184 12.7721 4.91817 12.4216 4.91817C12.1003 4.91817 11.8348 4.67757 11.7927 4.36542L11.787 4.27863L11.7867 3.45834Z" fill="#A5A5A5"/>
</svg>
