<svg width="20" height="20" viewBox="0 0 20 20" fill="none" xmlns="http://www.w3.org/2000/svg">
<path d="M16 0H4C1.79086 0 0 1.79086 0 4V16C0 18.2091 1.79086 20 4 20H16C18.2091 20 20 18.2091 20 16V4C20 1.79086 18.2091 0 16 0Z" fill="#FF8A48" fill-opacity="0.1"/>
<path d="M13.952 14.8058C13.8339 14.5043 13.7136 14.2028 13.5823 13.9058C13.4663 13.6409 13.3176 13.5632 13.0397 13.6294C12.6875 13.714 12.3419 13.8259 11.9897 13.9013C11.3093 14.0497 10.6267 14.0634 9.95511 13.8419C9.11285 13.5655 8.66437 12.9282 8.38873 12.1059H10.6727C10.8521 12.1059 10.9964 11.9551 10.9964 11.7678V11.0163C10.9964 10.829 10.8521 10.6782 10.6727 10.6782H8.16996C8.16996 10.4681 8.16777 10.2671 8.16996 10.0661H10.6727C10.8521 10.0661 10.9964 9.91532 10.9964 9.72802V8.97651C10.9964 8.78921 10.8521 8.63845 10.6727 8.63845H8.48498C8.48498 8.62932 8.48498 8.62018 8.48936 8.61561C8.75188 7.99202 9.13473 7.49178 9.76259 7.23138C10.4933 6.92987 11.2393 6.93672 11.9918 7.0989C12.3484 7.17428 12.6985 7.28849 13.0551 7.373C13.3154 7.43468 13.4663 7.35473 13.5779 7.10119C13.707 6.80881 13.8251 6.51186 13.9433 6.21263C14.0548 5.93167 13.9892 5.73295 13.7354 5.57762C13.672 5.53879 13.6064 5.50681 13.5385 5.4794C12.4841 5.04997 11.3968 4.89008 10.2745 5.07738C9.48476 5.20987 8.74751 5.49311 8.11089 6.00934C7.30801 6.65805 6.78734 7.51463 6.48544 8.52196L6.44825 8.63845H5.32378C5.14439 8.63845 5 8.78921 5 8.97651V9.72802C5 9.91532 5.14439 10.0661 5.32378 10.0661H6.20979C6.20979 10.2717 6.20979 10.4704 6.20979 10.6782H5.32378C5.14439 10.6782 5 10.829 5 11.0163V11.7678C5 11.9551 5.14439 12.1059 5.32378 12.1059H6.39137C6.47231 12.38 6.54013 12.6586 6.64295 12.9213C7.18331 14.2827 8.08901 15.2512 9.45194 15.7126C10.5786 16.0941 11.714 16.0827 12.8494 15.756C13.1448 15.6715 13.4379 15.5619 13.7179 15.4271C13.9892 15.2969 14.0592 15.0776 13.952 14.8058Z" fill="#FF8A48"/>
</svg>
