<svg width="20" height="20" viewBox="0 0 20 20" fill="none" xmlns="http://www.w3.org/2000/svg">
<rect width="20" height="20" rx="5" fill="#161616"/>
<path d="M6 7V9H15L10 4V7H6Z" fill="white"/>
<path d="M15 13L15 11L6 11L11 16L11 13L15 13Z" fill="white"/>
</svg>
