<svg width="20" height="26" viewBox="0 0 20 26" fill="none" xmlns="http://www.w3.org/2000/svg">
<path d="M0 0V26H20V6.594L19.72 6.281L13.72 0.281L13.406 0.000999928H0V0ZM2 2H12V8H18V24H2V2ZM14 3.438L16.563 6H14V3.437V3.438ZM5 10V12H15V10H5ZM5 14V16H15V14H5ZM5 18V20H15V18H5Z" fill="#38327C"/>
</svg>
