<svg width="14" height="14" viewBox="0 0 14 14" fill="none" xmlns="http://www.w3.org/2000/svg">
<path d="M2.5725 1.75L1.75 2.5725L3.31917 4.14167C2.67942 4.95699 2.33223 5.96365 2.33333 7C2.33333 8.07917 2.70083 9.07083 3.31917 9.85833L1.75 11.4275L2.5725 12.25L4.14167 10.6808C4.95699 11.3206 5.96365 11.6678 7 11.6667C8.07917 11.6667 9.07083 11.2992 9.85833 10.6808L11.4275 12.25L12.25 11.4275L10.6808 9.85833C11.3206 9.04301 11.6678 8.03635 11.6667 7C11.6667 5.92083 11.2992 4.92917 10.6808 4.14167L12.25 2.5725L11.4275 1.75L9.85833 3.31917C9.04301 2.67942 8.03635 2.33223 7 2.33333C5.92083 2.33333 4.92917 2.70083 4.14167 3.31917L2.5725 1.75ZM7 3.5C8.93083 3.5 10.5 5.06917 10.5 7C10.5 8.93083 8.93083 10.5 7 10.5C5.06917 10.5 3.5 8.93083 3.5 7C3.5 5.06917 5.06917 3.5 7 3.5Z" fill="white"/>
</svg>
