<svg width="12" height="19" viewBox="0 0 12 19" fill="none" xmlns="http://www.w3.org/2000/svg">
<path d="M7.97656 17.6504L7.97656 6.12983" stroke="white" stroke-linecap="round" stroke-linejoin="round"/>
<path d="M11.1191 17.6504L11.1191 2.98786" stroke="white" stroke-linecap="round" stroke-linejoin="round"/>
<path d="M4.83594 17.6504L4.83594 9.2718" stroke="white" stroke-linecap="round" stroke-linejoin="round"/>
<path d="M1.69336 17.6504L1.69336 11.3664" stroke="white" stroke-linecap="round" stroke-linejoin="round"/>
<path d="M1.2168 7.95796L8.17475 1" stroke="white" stroke-linecap="round" stroke-linejoin="round"/>
</svg>
