<svg width="118" height="112" viewBox="0 0 118 112" fill="none" xmlns="http://www.w3.org/2000/svg">
<rect width="118" height="112" rx="19" fill="#F7FAFF"/>
<rect x="0.5" y="0.5" width="117" height="111" rx="18.5" stroke="#3670FB" stroke-opacity="0.37" stroke-dasharray="7 7"/>
<path d="M57.4602 45.581V37.563C57.4602 36.7105 58.1402 36 59.0002 36C59.7702 36 60.4226 36.597 60.5259 37.3532L60.5402 37.563V45.581L70.1 45.5817C74.86 45.5817 78.7707 49.4796 78.9903 54.3408L79 54.7722V64.8508C79 69.7461 75.2253 73.7644 70.5361 73.99L70.12 74H47.88C43.12 74 39.2282 70.1216 39.0097 65.2425L39 64.8095V54.7515C39 49.8562 42.7558 45.8184 47.444 45.5917L47.86 45.5817H57.46V58.3864L54.26 55.082C53.66 54.4624 52.68 54.4624 52.08 55.082C51.78 55.3918 51.64 55.8048 51.64 56.2179C51.64 56.5318 51.7296 56.8589 51.919 57.1359L52.08 57.3331L57.9 63.3638C58.18 63.6736 58.58 63.8388 59 63.8388C59.3333 63.8388 59.6667 63.724 59.9306 63.5065L60.08 63.3638L65.9 57.3331C66.5 56.7135 66.5 55.7016 65.9 55.082C65.3545 54.5187 64.495 54.4675 63.8925 54.9284L63.72 55.082L60.54 58.3864V45.5817L57.4602 45.581Z" fill="#3670FB" fill-opacity="0.22"/>
</svg>
